<svg xmlns="http://www.w3.org/2000/svg" width="66" height="66" viewBox="0 0 66 66">
  <g id="Group_11120" data-name="Group 11120" transform="translate(-346 -431)">
    <rect id="Rectangle_1277" data-name="Rectangle 1277" width="66" height="66" rx="33" transform="translate(346 431)" fill="#fff9dd"/>
    <path id="star" d="M38.466,14.459A2.046,2.046,0,0,0,36.7,13.049L25.57,12.038l-4.4-10.3a2.05,2.05,0,0,0-3.77,0L13,12.038,1.864,13.049A2.052,2.052,0,0,0,.7,16.636l8.414,7.379L6.633,34.944a2.047,2.047,0,0,0,3.048,2.215l9.6-5.739,9.6,5.739a2.049,2.049,0,0,0,3.05-2.215L29.451,24.015l8.414-7.378A2.051,2.051,0,0,0,38.466,14.459Zm0,0" transform="translate(360.143 443.854)" fill="#ffc107"/>
  </g>
</svg>
